…
	Shapiro-Wilk normality test

data:  y1.reg
W = 0.96192, p-value = 0.000001269


	Durbin-Watson test

data:  model_1
DW = 0.90191, p-value < 0.00000000000000022
alternative hypothesis: true autocorrelation is greater than 0

# A tibble: 274 × 65
   Location    Site  Section sample min_depth max_depth midpoint SH20_age   kcps    cps   MSE     K    Ca    Ti    Mn    Fe    Co    Ni    Cu     Zn    Rb    Sr    Zr Mo_coh coh_inc
   <chr>       <fct> <chr>    <dbl>     <dbl>     <dbl>    <dbl>    <dbl>  <dbl>  <dbl> <dbl> <dbl> <dbl> <dbl> <dbl> <dbl> <dbl> <dbl> <dbl>  <dbl> <dbl> <dbl> <dbl>  <dbl>   <dbl>
 1 Bird Island BI10  BI10.1       1       0         1.1      0.6   -55.5  20690. 52220.  1.33 -8.35 -6.81 -7.78 -7.73 -1.94 -6.32 -5.40 -6.08  -8.32 -7.30 -7.15 -3.88  -1.92   0.146
 2 Bird Island BI10  BI10.1       4       3.9       5        4.5     5.22 24516. 60507.  1.32 -8.35 -6.96 -8.11 -7.14 -2.19 -6.32 -5.24 -6.12 -10.0  -6.68 -9.19 -3.92  -1.92   0.146
 3 Bird Island BI10  BI10.1      10      11.7      12.8     12.3   132.   21783. 52798.  1.29 -8.32 -6.61 -8.11 -8.05 -3.58 -7.13 -5.39 -6.38  -8.86 -7.30 -8.18 -3.82  -1.94   0.144
 4 Bird Island BI10  BI10.1      22      26.7      27.8     27.2   383.   21760. 52292.  1.33 -8.18 -5.79 -7.16 -7.27 -3.30 -6.70 -5.30 -6.15  -6.10 -6.32 -5.10 -3.88  -1.91   0.148
 5 Bird Island BI10  BI10.1      30      36.3      37.2     36.7   542.   22119. 57449   1.35 -7.29 -5.18 -6.24 -6.78 -1.57 -5.58 -5.20 -5.64  -6.25 -6.71 -4.70 -3.88  -1.83   0.160
 6 Bird Island BI10  BI10.1      34      40.9      41.9     41.4   619.   23492. 61638.  1.35 -8.18 -5.47 -7.11 -7.02 -1.34 -5.06 -5.18 -5.65  -7.70 -8.74 -5.61 -3.89  -1.86   0.155
 7 Bird Island BI10  BI10.2      45      44        45       44.5   670.   23876. 60912.  1.36 -7.96 -5.15 -6.99 -7.19 -1.84 -5.41 -5.27 -5.71  -5.08 -6.79 -4.75 -3.90  -1.86   0.156
 8 Bird Island BI10  BI10.2      51      51.9      52.9     52.4   800.   24297. 57427.  1.32 -8.36 -5.41 -8.05 -7.16 -3.75 -6.60 -5.26 -5.89  -9.10 -7.25 -5.01 -3.89  -1.91   0.149
 9 Bird Island BI10  BI10.2      54      55.3      56.3     55.8   856.   24361  56855.  1.40 -8.81 -5.56 -8.48 -7.22 -3.98 -7.16 -5.23 -5.86  -8.06 -7.35 -5.76 -3.89  -1.92   0.147
10 Bird Island BI10  BI10.2      62      64.4      65.4     64.9  1006.   22100. 54142.  1.27 -7.31 -4.98 -6.39 -6.62 -2.73 -6.30 -5.31 -5.71  -4.38 -5.66 -4.22 -3.83  -1.84   0.159
# ℹ 264 more rows
# ℹ 40 more variables: K_sd <dbl>, Ca_sd <dbl>, Ti_sd <dbl>, Mn_sd <dbl>, Fe_sd <dbl>, Co_sd <dbl>, Ni_sd <dbl>, Cu_sd <dbl>, Zn_sd <dbl>, Rb_sd <dbl>, Sr_sd <dbl>, Zr_sd <dbl>,
#   Mo_coh_sd <dbl>, coh_inc_sd <dbl>, K_ICP <dbl>, Ca_ICP <dbl>, Ti_ICP <dbl>, Mn_ICP <dbl>, Fe_ICP <dbl>, Co_ICP <dbl>, Ni_ICP <dbl>, Cu_ICP <dbl>, Zn_ICP <dbl>, Rb_ICP <dbl>,
#   Sr_ICP <dbl>, Zr_ICP <dbl>, dry_mass_pc <dbl>, K_ICP_sd <dbl>, Ca_ICP_sd <dbl>, Ti_ICP_sd <dbl>, Mn_ICP_sd <dbl>, Fe_ICP_sd <dbl>, Co_ICP_sd <dbl>, Ni_ICP_sd <dbl>,
#   Cu_ICP_sd <dbl>, Zn_ICP_sd <dbl>, Rb_ICP_sd <dbl>, Sr_ICP_sd <dbl>, Zr_ICP_sd <dbl>, dry_mass_err <dbl>
# ℹ Use `print(n = ...)` to see more rows
…
# A tibble: 302 × 79
   Location   Site  Section sample min_depth max_depth midpoint SH20_age   kcps    cps   MSE     K    Ca    Ti    Mn     Fe    Co    Ni    Cu     Zn     Rb     Sr    Zr Mo_inc Mo_coh
   <chr>      <chr> <chr>    <dbl>     <dbl>     <dbl>    <dbl>    <dbl>  <dbl>  <dbl> <dbl> <dbl> <dbl> <dbl> <dbl>  <dbl> <dbl> <dbl> <dbl>  <dbl>  <dbl>  <dbl> <dbl>  <dbl>  <dbl>
 1 Bird Isla… BI10  BI10.1       1       0         1.1      0.6   -55.5  20690. 52220.  1.33  8.64  42   15.3   16.4  5451.  68.9  173.  88     8     26.2   28.7   792. 38214.  5590.
 2 Bird Isla… BI10  BI10.1       4       3.9       5        4.5     5.22 24516. 60507.  1.32 10.4   43.1 12.8   35.7  5084.  81.6  239.  98.9   0     56.5    2.08  898. 45226.  6602.
 3 Bird Isla… BI10  BI10.1      10      11.7      12.8     12.3   132.   21783. 52798.  1.29  9.83  56.5 12.5   12.9  1170   33.1  192.  71.2   4.33  28.6   10.2   922. 42094.  6060.
 4 Bird Isla… BI10  BI10.1      22      26.7      27.8     27.2   383.   21760. 52292.  1.33 11.3  125.  31.9   28.5  1496.  50.2  203.  87.4  90.9   74.3  248.    840. 40803.  6037.
 5 Bird Isla… BI10  BI10.1      30      36.3      37.2     36.7   542.   22119. 57449   1.35 26.3  218.  75.3   44.1  7995. 144.   213  138.   74.1   47    349.    793. 38551.  6177 
 6 Bird Isla… BI10  BI10.1      34      40.9      41.9     41.4   619.   23492. 61638.  1.35 11.1  172.  33.1   36.5 10621. 258.   227. 143    17.5    5.64 148.    831. 40697.  6303.
 7 Bird Isla… BI10  BI10.2      45      44        45       44.5   670.   23876. 60912.  1.36 14.7  248   39.4   32    6756. 190.   220. 142.  266.    47.9  370.    867. 42681.  6658.
 8 Bird Isla… BI10  BI10.2      51      51.9      52.9     52.4   800.   24297. 57427.  1.32 10.2  201.  13.9   34.8  1060.  61.5  235. 125.    3.27  31.6  302.    927. 45252.  6734.
 9 Bird Isla… BI10  BI10.2      54      55.3      56.3     55.8   856.   24361  56855.  1.40  6.09 175    8.45  33     849.  34.9  243. 129.   13     28.3  142     922. 45281   6665 
10 Bird Isla… BI10  BI10.2      62      64.4      65.4     64.9  1006.   22100. 54142.  1.27 25.8  271.  65.5   53    2591.  73.3  197  132.  495.   138.   579.    860. 39740.  6298.
# ℹ 292 more rows
# ℹ 54 more variables: coh_inc <dbl>, K_sd <dbl>, Ca_sd <dbl>, Ti_sd <dbl>, Mn_sd <dbl>, Fe_sd <dbl>, Co_sd <dbl>, Ni_sd <dbl>, Cu_sd <dbl>, Zn_sd <dbl>, Rb_sd <dbl>, Sr_sd <dbl>,
#   Zr_sd <dbl>, Mo_inc_sd <dbl>, Mo_coh_sd <dbl>, coh_inc_sd <dbl>, water_content_pc <dbl>, water_content_err <dbl>, dry_mass_pc <dbl>, dry_mass_err <dbl>, density_gcm3 <dbl>,
#   density_gcm3_err <dbl>, P_ICP <dbl>, P_ICP_sd <dbl>, K_ICP <dbl>, K_ICP_sd <dbl>, Ca_ICP <dbl>, Ca_ICP_sd <dbl>, Ti_ICP <dbl>, Ti_ICP_sd <dbl>, Mn_ICP <dbl>, Mn_ICP_sd <dbl>,
#   Fe_ICP <dbl>, Fe_ICP_sd <dbl>, Co_ICP <dbl>, Co_ICP_sd <dbl>, Ni_ICP <dbl>, Ni_ICP_sd <dbl>, Cu_ICP <dbl>, Cu_ICP_sd <dbl>, Zn_ICP <dbl>, Zn_ICP_sd <dbl>, As_ICP <dbl>,
#   As_ICP_sd <dbl>, Rb_ICP <dbl>, Rb_ICP_sd <dbl>, Sr_ICP <dbl>, Sr_ICP_sd <dbl>, Zr_ICP <dbl>, Zr_ICP_sd <dbl>, Pb_ICP <dbl>, Pb_ICP_sd <dbl>, Th_ICP <dbl>, Th_ICP_sd <dbl>
# ℹ Use `print(n = ...)` to see more rows
